{
    "name": "Profile Customizer",
    "uri": "http://bitbucket.org/pupi1985/q2a-profile-customizer-public",
    "description": "Adds additional features and fields to the user profile section",
    "version": "3.0.3",
    "date": "2024-05-12",
    "author": "Gabriel Zanetti",
    "author_uri": "http://question2answer.org/qa/user/pupi1985",
    "license": "GPLv3",
    "update_uri": "http://bitbucket.org/pupi1985/q2a-profile-customizer-public/raw/master/metadata.json",
    "min_q2a": "1.7.0",
    "min_php": "5.1.2",
    "load_order": "after_db_init"
}
